Feb 10 09:30:16 ws522-001 init: tty2 main process ended, respawning
Feb 10 09:30:39 ws522-001 acpid: client 975[0:0] has disconnected
Feb 10 09:30:39 ws522-001 acpid: client 975[0:0] has disconnected
Feb 10 13:12:19 ws522-001 acpid: client connected from 975[0:0]
Feb 10 13:12:19 ws522-001 acpid: 1 client rule loaded
Feb 10 13:12:19 ws522-001 acpid: client connected from 975[0:0]
Feb 10 13:12:19 ws522-001 acpid: 1 client rule loaded
Feb 10 14:30:59 ws522-001 avahi-daemon[827]: Found user 'avahi' (UID 104) and group 'avahi' (GID 111).
Feb 10 14:30:59 ws522-001 avahi-daemon[827]: Successfully dropped root privileges.
Feb 10 14:30:59 ws522-001 avahi-daemon[827]: avahi-daemon 0.6.25 starting up.
Feb 10 14:30:59 ws522-001 avahi-daemon[827]: Successfully called chroot().
Feb 10 14:30:59 ws522-001 avahi-daemon[827]: Successfully dropped remaining capabilities.
Feb 10 14:30:59 ws522-001 avahi-daemon[827]: No service file found in /etc/avahi/services.
Feb 10 14:30:59 ws522-001 avahi-daemon[827]: Network interface enumeration completed.
Feb 10 14:30:59 ws522-001 avahi-daemon[827]: Registering HINFO record with values 'X86_64'/'LINUX'.
Feb 10 14:30:59 ws522-001 avahi-daemon[827]: Server startup complete. Host name is ws522-001.local. Local service cookie is 2445216448.
Feb 10 14:31:00 ws522-001 NetworkManager: <info>  starting...
Feb 10 14:31:00 ws522-001 NetworkManager: <info>  Trying to start the modem-manager...
Feb 10 14:31:00 ws522-001 NetworkManager:    SCPlugin-Ifupdown: init!
Feb 10 14:31:00 ws522-001 NetworkManager:    SCPlugin-Ifupdown: update_system_hostname
Feb 10 14:31:00 ws522-001 NetworkManager:    SCPluginIfupdown: management mode: unmanaged
Feb 10 14:31:00 ws522-001 NetworkManager:    SCPlugin-Ifupdown: devices added (path: /sys/devices/pci0000:00/0000:00:07.0/net/eth0, iface: eth0)
Feb 10 14:31:00 ws522-001 NetworkManager:    SCPlugin-Ifupdown: device added (path: /sys/devices/pci0000:00/0000:00:07.0/net/eth0, iface: eth0): no ifupdown configuration found.
Feb 10 14:31:00 ws522-001 NetworkManager:    SCPlugin-Ifupdown: devices added (path: /sys/devices/virtual/net/lo, iface: lo)
Feb 10 14:31:00 ws522-001 NetworkManager:    SCPlugin-Ifupdown: device added (path: /sys/devices/virtual/net/lo, iface: lo): no ifupdown configuration found.
Feb 10 14:31:00 ws522-001 NetworkManager:    SCPlugin-Ifupdown: end _init.
Feb 10 14:31:00 ws522-001 NetworkManager: Loaded plugin ifupdown: (C) 2008 Canonical Ltd.  To report bugs please use the NetworkManager mailing list.
Feb 10 14:31:00 ws522-001 NetworkManager: Loaded plugin keyfile: (c) 2007 - 2008 Red Hat, Inc.  To report bugs please use the NetworkManager mailing list.
Feb 10 14:31:00 ws522-001 NetworkManager: <info>  WiFi enabled by radio killswitch; enabled by state file
Feb 10 14:31:00 ws522-001 NetworkManager: <info>  WWAN enabled by radio killswitch; enabled by state file
Feb 10 14:31:00 ws522-001 NetworkManager:    SCPlugin-Ifupdown: (17351968) ... get_connections.
Feb 10 14:31:00 ws522-001 NetworkManager:    SCPlugin-Ifupdown: (17351968) ... get_connections (managed=false): return empty list.
Feb 10 14:31:00 ws522-001 modem-manager: Loaded plugin Longcheer
Feb 10 14:31:00 ws522-001 modem-manager: Loaded plugin Generic
Feb 10 14:31:00 ws522-001 modem-manager: Loaded plugin Huawei
Feb 10 14:31:00 ws522-001 NetworkManager:    Ifupdown: get unmanaged devices count: 0
Feb 10 14:31:00 ws522-001 modem-manager: Loaded plugin ZTE
Feb 10 14:31:00 ws522-001 modem-manager: Loaded plugin MotoC
Feb 10 14:31:00 ws522-001 modem-manager: Loaded plugin Ericsson MBM
Feb 10 14:31:00 ws522-001 modem-manager: Loaded plugin Sierra
Feb 10 14:31:00 ws522-001 modem-manager: Loaded plugin Novatel
Feb 10 14:31:00 ws522-001 modem-manager: Loaded plugin Nokia
Feb 10 14:31:00 ws522-001 modem-manager: Loaded plugin Option
Feb 10 14:31:00 ws522-001 modem-manager: Loaded plugin Option High-Speed
Feb 10 14:31:00 ws522-001 modem-manager: Loaded plugin AnyData
Feb 10 14:31:00 ws522-001 modem-manager: Loaded plugin Gobi
Feb 10 14:31:00 ws522-001 NetworkManager: <info>  (eth0): carrier is OFF
Feb 10 14:31:00 ws522-001 NetworkManager: <info>  (eth0): new Ethernet device (driver: 'forcedeth')
Feb 10 14:31:00 ws522-001 NetworkManager: <info>  (eth0): exported as /org/freedesktop/NetworkManager/Devices/0
Feb 10 14:31:00 ws522-001 NetworkManager: <info>  (eth0): now managed
Feb 10 14:31:00 ws522-001 NetworkManager: <info>  (eth0): device state change: 1 -> 2 (reason 2)
Feb 10 14:31:00 ws522-001 NetworkManager: <info>  (eth0): bringing up device.
Feb 10 14:31:00 ws522-001 NetworkManager: <info>  (eth0): preparing device.
Feb 10 14:31:00 ws522-001 NetworkManager: <info>  (eth0): deactivating device (reason: 2).
Feb 10 14:31:00 ws522-001 NetworkManager: Added default wired connection 'Auto eth0' for /sys/devices/pci0000:00/0000:00:07.0/net/eth0
Feb 10 14:31:00 ws522-001 NetworkManager: <info>  (eth0): carrier now ON (device state 2)
Feb 10 14:31:00 ws522-001 NetworkManager: <info>  (eth0): device state change: 2 -> 3 (reason 40)
Feb 10 14:31:00 ws522-001 NetworkManager: <WARN>  default_adapter_cb(): bluez error getting default adapter: The name org.bluez was not provided by any .service files
Feb 10 14:31:00 ws522-001 NetworkManager: <info>  modem-manager is now available
Feb 10 14:31:00 ws522-001 NetworkManager: <info>  Trying to start the supplicant...
Feb 10 14:31:00 ws522-001 NetworkManager: <info>  Activation (eth0) starting connection 'Auto eth0'
Feb 10 14:31:00 ws522-001 NetworkManager: <info>  (eth0): device state change: 3 -> 4 (reason 0)
Feb 10 14:31:00 ws522-001 NetworkManager: <info>  Activation (eth0) Stage 1 of 5 (Device Prepare) scheduled...
Feb 10 14:31:00 ws522-001 NetworkManager: <info>  Activation (eth0) Stage 1 of 5 (Device Prepare) started...
Feb 10 14:31:00 ws522-001 NetworkManager: <info>  Activation (eth0) Stage 2 of 5 (Device Configure) scheduled...
Feb 10 14:31:00 ws522-001 NetworkManager: <info>  Activation (eth0) Stage 1 of 5 (Device Prepare) complete.
Feb 10 14:31:00 ws522-001 NetworkManager: <info>  Activation (eth0) Stage 2 of 5 (Device Configure) starting...
Feb 10 14:31:00 ws522-001 NetworkManager: <info>  (eth0): device state change: 4 -> 5 (reason 0)
Feb 10 14:31:00 ws522-001 NetworkManager: <info>  Activation (eth0) Stage 2 of 5 (Device Configure) successful.
Feb 10 14:31:00 ws522-001 NetworkManager: <info>  Activation (eth0) Stage 3 of 5 (IP Configure Start) scheduled.
Feb 10 14:31:00 ws522-001 NetworkManager: <info>  Activation (eth0) Stage 2 of 5 (Device Configure) complete.
Feb 10 14:31:00 ws522-001 NetworkManager: <info>  Activation (eth0) Stage 3 of 5 (IP Configure Start) started...
Feb 10 14:31:00 ws522-001 NetworkManager: <info>  (eth0): device state change: 5 -> 7 (reason 0)
Feb 10 14:31:00 ws522-001 NetworkManager: <info>  Activation (eth0) Beginning DHCP transaction (timeout in 45 seconds)
Feb 10 14:31:01 ws522-001 NetworkManager: <info>  dhclient started with pid 887
Feb 10 14:31:01 ws522-001 NetworkManager: <info>  Activation (eth0) Stage 4 of 5 (IP6 Configure Get) scheduled...
Feb 10 14:31:01 ws522-001 NetworkManager: <info>  Activation (eth0) Stage 3 of 5 (IP Configure Start) complete.
Feb 10 14:31:01 ws522-001 NetworkManager: <info>  Activation (eth0) Stage 4 of 5 (IP6 Configure Get) started...
Feb 10 14:31:01 ws522-001 NetworkManager: <info>  Activation (eth0) Stage 4 of 5 (IP6 Configure Get) complete.
Feb 10 14:31:01 ws522-001 dhclient: Internet Systems Consortium DHCP Client V3.1.3
Feb 10 14:31:01 ws522-001 dhclient: Copyright 2004-2009 Internet Systems Consortium.
Feb 10 14:31:01 ws522-001 dhclient: All rights reserved.
Feb 10 14:31:01 ws522-001 dhclient: For info, please visit https://www.isc.org/software/dhcp/
Feb 10 14:31:01 ws522-001 dhclient: 
Feb 10 14:31:01 ws522-001 gdm-binary[857]: WARNING: Unable to find users: no seat-id found
Feb 10 14:31:01 ws522-001 NetworkManager: <info>  DHCP: device eth0 state changed (null) -> preinit
Feb 10 14:31:01 ws522-001 dhclient: Listening on LPF/eth0/00:1e:8c:0a:7c:72
Feb 10 14:31:01 ws522-001 dhclient: Sending on   LPF/eth0/00:1e:8c:0a:7c:72
Feb 10 14:31:01 ws522-001 dhclient: Sending on   Socket/fallback
Feb 10 14:31:02 ws522-001 avahi-daemon[827]: Registering new address record for fe80::21e:8cff:fe0a:7c72 on eth0.*.
Feb 10 14:31:02 ws522-001 cdemud[1015]: Starting daemon in daemon mode with following parameters:
Feb 10 14:31:02 ws522-001 cdemud[1015]:  - num devices: 2
Feb 10 14:31:02 ws522-001 cdemud[1015]:  - ctl device: /dev/vhba_ctl
Feb 10 14:31:02 ws522-001 cdemud[1015]:  - audio driver: default
Feb 10 14:31:02 ws522-001 cdemud[1015]:  - bus type: system#012
Feb 10 14:31:02 ws522-001 cdemud[1015]: WARNING: using CDEmu on system bus is deprecated and might lead to security issues on multi-user systems! Consult the README file for more details.#012
Feb 10 14:31:03 ws522-001 acpid: starting up with proc fs
Feb 10 14:31:03 ws522-001 init: apport pre-start process (987) terminated with status 1
Feb 10 14:31:03 ws522-001 init: apport post-stop process (1061) terminated with status 1
Feb 10 14:31:04 ws522-001 dhclient: DHCPDISCOVER on eth0 to 255.255.255.255 port 67 interval 3
Feb 10 14:31:04 ws522-001 dhclient: DHCPOFFER of 10.16.0.233 from 10.16.0.1
Feb 10 14:31:04 ws522-001 dhclient: DHCPREQUEST of 10.16.0.233 on eth0 to 255.255.255.255 port 67
Feb 10 14:31:04 ws522-001 dhclient: DHCPACK of 10.16.0.233 from 10.16.0.1
Feb 10 14:31:04 ws522-001 NetworkManager: <info>  DHCP: device eth0 state changed preinit -> bound
Feb 10 14:31:04 ws522-001 NetworkManager: <info>  Activation (eth0) Stage 4 of 5 (IP4 Configure Get) scheduled...
Feb 10 14:31:04 ws522-001 NetworkManager: <info>  Activation (eth0) Stage 4 of 5 (IP4 Configure Get) started...
Feb 10 14:31:04 ws522-001 NetworkManager: <info>    address 10.16.0.233
Feb 10 14:31:04 ws522-001 NetworkManager: <info>    prefix 16 (255.255.0.0)
Feb 10 14:31:04 ws522-001 NetworkManager: <info>    gateway 10.16.0.1
Feb 10 14:31:04 ws522-001 NetworkManager: <info>    nameserver '8.8.8.8'
Feb 10 14:31:04 ws522-001 NetworkManager: <info>    nameserver '8.8.4.4'
Feb 10 14:31:04 ws522-001 NetworkManager: <info>  Activation (eth0) Stage 5 of 5 (IP Configure Commit) scheduled...
Feb 10 14:31:04 ws522-001 NetworkManager: <info>  Activation (eth0) Stage 4 of 5 (IP4 Configure Get) complete.
Feb 10 14:31:04 ws522-001 NetworkManager: <info>  Activation (eth0) Stage 5 of 5 (IP Configure Commit) started...
Feb 10 14:31:04 ws522-001 avahi-daemon[827]: Joining mDNS multicast group on interface eth0.IPv4 with address 10.16.0.233.
Feb 10 14:31:04 ws522-001 avahi-daemon[827]: New relevant interface eth0.IPv4 for mDNS.
Feb 10 14:31:04 ws522-001 avahi-daemon[827]: Registering new address record for 10.16.0.233 on eth0.IPv4.
Feb 10 14:31:04 ws522-001 dhclient: bound to 10.16.0.233 -- renewal in 36302 seconds.
Feb 10 14:31:04 ws522-001 acpid: 36 rules loaded
Feb 10 14:31:04 ws522-001 acpid: waiting for events: event logging is off
Feb 10 14:31:05 ws522-001 NetworkManager: <info>  (eth0): device state change: 7 -> 8 (reason 0)
Feb 10 14:31:05 ws522-001 NetworkManager: <info>  Policy set 'Auto eth0' (eth0) as default for routing and DNS.
Feb 10 14:31:05 ws522-001 NetworkManager: <info>  Activation (eth0) successful, device activated.
Feb 10 14:31:05 ws522-001 NetworkManager: <info>  Activation (eth0) Stage 5 of 5 (IP Configure Commit) complete.
Feb 10 14:31:08 ws522-001 acpid: client connected from 972[0:0]
Feb 10 14:31:08 ws522-001 acpid: 1 client rule loaded
Feb 10 14:31:10 ws522-001 /etc/mysql/debian-start[1244]: Upgrading MySQL tables if necessary.
Feb 10 14:31:10 ws522-001 gdm-session-worker[1248]: GLib-GObject-CRITICAL: g_value_get_boolean: assertion `G_VALUE_HOLDS_BOOLEAN (value)' failed
Feb 10 14:31:11 ws522-001 /etc/mysql/debian-start[1251]: /usr/bin/mysql_upgrade: the '--basedir' option is always ignored
Feb 10 14:31:11 ws522-001 /etc/mysql/debian-start[1251]: Looking for 'mysql' as: /usr/bin/mysql
Feb 10 14:31:11 ws522-001 /etc/mysql/debian-start[1251]: Looking for 'mysqlcheck' as: /usr/bin/mysqlcheck
Feb 10 14:31:11 ws522-001 /etc/mysql/debian-start[1251]: This installation of MySQL is already upgraded to 5.1.70, use --force if you still need to run mysql_upgrade
Feb 10 14:31:11 ws522-001 /etc/mysql/debian-start[1309]: Checking for insecure root accounts.
Feb 10 14:31:11 ws522-001 /etc/mysql/debian-start[1317]: Triggering myisam-recover for all MyISAM tables
Feb 10 14:31:12 ws522-001 init: plymouth-stop pre-start process (1361) terminated with status 1
Feb 10 14:31:16 ws522-001 rtkit-daemon[1452]: Sucessfully called chroot.
Feb 10 14:31:16 ws522-001 rtkit-daemon[1452]: Sucessfully dropped privileges.
Feb 10 14:31:16 ws522-001 rtkit-daemon[1452]: Sucessfully limited resources.
Feb 10 14:31:16 ws522-001 rtkit-daemon[1452]: Running.
Feb 10 14:31:16 ws522-001 rtkit-daemon[1452]: Watchdog thread running.
Feb 10 14:31:16 ws522-001 rtkit-daemon[1452]: Canary thread running.
Feb 10 14:31:16 ws522-001 polkitd[1459]: started daemon version 0.96 using authority implementation `local' version `0.96'
Feb 10 14:31:17 ws522-001 gnome-session[1313]: WARNING: Could not launch application 'bluetooth-applet.desktop': Unable to start application: Помилка виконання дочірнього процесу "bluetooth-applet" (No such file or directory)
Feb 10 14:31:17 ws522-001 rtkit-daemon[1452]: Sucessfully made thread 1450 of process 1450 (n/a) owned by '1001' high priority at nice level -11.
Feb 10 14:31:17 ws522-001 rtkit-daemon[1452]: Supervising 1 threads of 1 processes of 1 users.
Feb 10 14:31:18 ws522-001 rtkit-daemon[1452]: Sucessfully made thread 1474 of process 1450 (n/a) owned by '1001' RT at priority 5.
Feb 10 14:31:18 ws522-001 rtkit-daemon[1452]: Supervising 2 threads of 1 processes of 1 users.
Feb 10 14:31:18 ws522-001 rtkit-daemon[1452]: Sucessfully made thread 1475 of process 1450 (n/a) owned by '1001' RT at priority 5.
Feb 10 14:31:18 ws522-001 rtkit-daemon[1452]: Supervising 3 threads of 1 processes of 1 users.
Feb 10 14:31:20 ws522-001 rtkit-daemon[1452]: Sucessfully made thread 1490 of process 1490 (n/a) owned by '1001' high priority at nice level -11.
Feb 10 14:31:20 ws522-001 rtkit-daemon[1452]: Supervising 4 threads of 2 processes of 1 users.
Feb 10 14:31:24 ws522-001 acpid: client connected from 1600[108:114]
Feb 10 14:31:24 ws522-001 acpid: 1 client rule loaded
Feb 10 14:31:32 ws522-001 gnome-session[1313]: WARNING: Could not launch application 'gnome-user-share.desktop': Unable to start application: Помилка виконання дочірнього процесу "/usr/lib/gnome-user-share/gnome-user-share" (No such file or directory)
Feb 10 14:32:19 ws522-001 AptDaemon: INFO: Initializing daemon
Feb 10 14:32:40 ws522-001 ntpdate[1493]: can't find host ntp.ubuntu.com
Feb 10 14:32:40 ws522-001 ntpdate[1493]: no servers can be used, exiting
Feb 10 14:36:49 ws522-001 avahi-daemon[873]: Found user 'avahi' (UID 104) and group 'avahi' (GID 111).
Feb 10 14:36:49 ws522-001 avahi-daemon[873]: Successfully dropped root privileges.
Feb 10 14:36:49 ws522-001 avahi-daemon[873]: avahi-daemon 0.6.25 starting up.
Feb 10 14:36:50 ws522-001 avahi-daemon[873]: Successfully called chroot().
Feb 10 14:36:50 ws522-001 avahi-daemon[873]: Successfully dropped remaining capabilities.
Feb 10 14:36:50 ws522-001 avahi-daemon[873]: No service file found in /etc/avahi/services.
Feb 10 14:36:50 ws522-001 avahi-daemon[873]: Network interface enumeration completed.
Feb 10 14:36:50 ws522-001 avahi-daemon[873]: Registering HINFO record with values 'X86_64'/'LINUX'.
Feb 10 14:36:50 ws522-001 avahi-daemon[873]: Server startup complete. Host name is ws522-001.local. Local service cookie is 2234153513.
Feb 10 14:36:50 ws522-001 NetworkManager: <info>  starting...
Feb 10 14:36:50 ws522-001 NetworkManager: <info>  Trying to start the modem-manager...
Feb 10 14:36:50 ws522-001 modem-manager: Loaded plugin Longcheer
Feb 10 14:36:50 ws522-001 modem-manager: Loaded plugin Generic
Feb 10 14:36:50 ws522-001 modem-manager: Loaded plugin Huawei
Feb 10 14:36:50 ws522-001 modem-manager: Loaded plugin ZTE
Feb 10 14:36:50 ws522-001 modem-manager: Loaded plugin MotoC
Feb 10 14:36:50 ws522-001 modem-manager: Loaded plugin Ericsson MBM
Feb 10 14:36:50 ws522-001 modem-manager: Loaded plugin Sierra
Feb 10 14:36:50 ws522-001 modem-manager: Loaded plugin Novatel
Feb 10 14:36:51 ws522-001 modem-manager: Loaded plugin Nokia
Feb 10 14:36:51 ws522-001 modem-manager: Loaded plugin Option
Feb 10 14:36:51 ws522-001 modem-manager: Loaded plugin Option High-Speed
Feb 10 14:36:51 ws522-001 NetworkManager:    SCPlugin-Ifupdown: init!
Feb 10 14:36:51 ws522-001 NetworkManager:    SCPlugin-Ifupdown: update_system_hostname
Feb 10 14:36:51 ws522-001 NetworkManager:    SCPluginIfupdown: management mode: unmanaged
Feb 10 14:36:51 ws522-001 NetworkManager:    SCPlugin-Ifupdown: devices added (path: /sys/devices/pci0000:00/0000:00:07.0/net/eth0, iface: eth0)
Feb 10 14:36:51 ws522-001 NetworkManager:    SCPlugin-Ifupdown: device added (path: /sys/devices/pci0000:00/0000:00:07.0/net/eth0, iface: eth0): no ifupdown configuration found.
Feb 10 14:36:51 ws522-001 NetworkManager:    SCPlugin-Ifupdown: devices added (path: /sys/devices/virtual/net/lo, iface: lo)
Feb 10 14:36:51 ws522-001 NetworkManager:    SCPlugin-Ifupdown: device added (path: /sys/devices/virtual/net/lo, iface: lo): no ifupdown configuration found.
Feb 10 14:36:51 ws522-001 NetworkManager:    SCPlugin-Ifupdown: end _init.
Feb 10 14:36:51 ws522-001 NetworkManager: Loaded plugin ifupdown: (C) 2008 Canonical Ltd.  To report bugs please use the NetworkManager mailing list.
Feb 10 14:36:51 ws522-001 NetworkManager: Loaded plugin keyfile: (c) 2007 - 2008 Red Hat, Inc.  To report bugs please use the NetworkManager mailing list.
Feb 10 14:36:51 ws522-001 NetworkManager: <info>  WiFi enabled by radio killswitch; enabled by state file
Feb 10 14:36:51 ws522-001 NetworkManager: <info>  WWAN enabled by radio killswitch; enabled by state file
Feb 10 14:36:51 ws522-001 NetworkManager:    SCPlugin-Ifupdown: (15103264) ... get_connections.
Feb 10 14:36:51 ws522-001 NetworkManager:    SCPlugin-Ifupdown: (15103264) ... get_connections (managed=false): return empty list.
Feb 10 14:36:51 ws522-001 modem-manager: Loaded plugin AnyData
Feb 10 14:36:51 ws522-001 NetworkManager:    Ifupdown: get unmanaged devices count: 0
Feb 10 14:36:51 ws522-001 NetworkManager: <info>  (eth0): carrier is OFF
Feb 10 14:36:51 ws522-001 NetworkManager: <info>  (eth0): new Ethernet device (driver: 'forcedeth')
Feb 10 14:36:51 ws522-001 NetworkManager: <info>  (eth0): exported as /org/freedesktop/NetworkManager/Devices/0
Feb 10 14:36:51 ws522-001 NetworkManager: <info>  (eth0): now managed
Feb 10 14:36:51 ws522-001 NetworkManager: <info>  (eth0): device state change: 1 -> 2 (reason 2)
Feb 10 14:36:51 ws522-001 NetworkManager: <info>  (eth0): bringing up device.
Feb 10 14:36:51 ws522-001 NetworkManager: <info>  (eth0): preparing device.
Feb 10 14:36:51 ws522-001 NetworkManager: <info>  (eth0): deactivating device (reason: 2).
Feb 10 14:36:51 ws522-001 NetworkManager: Added default wired connection 'Auto eth0' for /sys/devices/pci0000:00/0000:00:07.0/net/eth0
Feb 10 14:36:51 ws522-001 NetworkManager: <info>  (eth0): carrier now ON (device state 2)
Feb 10 14:36:51 ws522-001 NetworkManager: <info>  (eth0): device state change: 2 -> 3 (reason 40)
Feb 10 14:36:51 ws522-001 NetworkManager: <info>  modem-manager is now available
Feb 10 14:36:51 ws522-001 NetworkManager: <WARN>  default_adapter_cb(): bluez error getting default adapter: The name org.bluez was not provided by any .service files
Feb 10 14:36:51 ws522-001 NetworkManager: <info>  Trying to start the supplicant...
Feb 10 14:36:51 ws522-001 NetworkManager: <info>  Activation (eth0) starting connection 'Auto eth0'
Feb 10 14:36:51 ws522-001 NetworkManager: <info>  (eth0): device state change: 3 -> 4 (reason 0)
Feb 10 14:36:51 ws522-001 NetworkManager: <info>  Activation (eth0) Stage 1 of 5 (Device Prepare) scheduled...
Feb 10 14:36:51 ws522-001 NetworkManager: <info>  Activation (eth0) Stage 1 of 5 (Device Prepare) started...
Feb 10 14:36:51 ws522-001 NetworkManager: <info>  Activation (eth0) Stage 2 of 5 (Device Configure) scheduled...
Feb 10 14:36:51 ws522-001 NetworkManager: <info>  Activation (eth0) Stage 1 of 5 (Device Prepare) complete.
Feb 10 14:36:51 ws522-001 NetworkManager: <info>  Activation (eth0) Stage 2 of 5 (Device Configure) starting...
Feb 10 14:36:51 ws522-001 NetworkManager: <info>  (eth0): device state change: 4 -> 5 (reason 0)
Feb 10 14:36:51 ws522-001 NetworkManager: <info>  Activation (eth0) Stage 2 of 5 (Device Configure) successful.
Feb 10 14:36:51 ws522-001 NetworkManager: <info>  Activation (eth0) Stage 3 of 5 (IP Configure Start) scheduled.
Feb 10 14:36:51 ws522-001 NetworkManager: <info>  Activation (eth0) Stage 2 of 5 (Device Configure) complete.
Feb 10 14:36:51 ws522-001 NetworkManager: <info>  Activation (eth0) Stage 3 of 5 (IP Configure Start) started...
Feb 10 14:36:51 ws522-001 NetworkManager: <info>  (eth0): device state change: 5 -> 7 (reason 0)
Feb 10 14:36:51 ws522-001 NetworkManager: <info>  Activation (eth0) Beginning DHCP transaction (timeout in 45 seconds)
Feb 10 14:36:51 ws522-001 modem-manager: Loaded plugin Gobi
Feb 10 14:36:51 ws522-001 NetworkManager: <info>  dhclient started with pid 907
Feb 10 14:36:51 ws522-001 NetworkManager: <info>  Activation (eth0) Stage 4 of 5 (IP6 Configure Get) scheduled...
Feb 10 14:36:51 ws522-001 NetworkManager: <info>  Activation (eth0) Stage 3 of 5 (IP Configure Start) complete.
Feb 10 14:36:51 ws522-001 NetworkManager: <info>  Activation (eth0) Stage 4 of 5 (IP6 Configure Get) started...
Feb 10 14:36:51 ws522-001 NetworkManager: <info>  Activation (eth0) Stage 4 of 5 (IP6 Configure Get) complete.
Feb 10 14:36:51 ws522-001 dhclient: Internet Systems Consortium DHCP Client V3.1.3
Feb 10 14:36:51 ws522-001 dhclient: Copyright 2004-2009 Internet Systems Consortium.
Feb 10 14:36:51 ws522-001 dhclient: All rights reserved.
Feb 10 14:36:51 ws522-001 dhclient: For info, please visit https://www.isc.org/software/dhcp/
Feb 10 14:36:51 ws522-001 dhclient: 
Feb 10 14:36:51 ws522-001 NetworkManager: <info>  DHCP: device eth0 state changed (null) -> preinit
Feb 10 14:36:51 ws522-001 dhclient: Listening on LPF/eth0/00:1e:8c:0a:7c:72
Feb 10 14:36:51 ws522-001 dhclient: Sending on   LPF/eth0/00:1e:8c:0a:7c:72
Feb 10 14:36:51 ws522-001 dhclient: Sending on   Socket/fallback
Feb 10 14:36:52 ws522-001 gdm-binary[864]: WARNING: Unable to find users: no seat-id found
Feb 10 14:36:52 ws522-001 cdemud[1037]: Starting daemon in daemon mode with following parameters:
Feb 10 14:36:52 ws522-001 cdemud[1037]:  - num devices: 2
Feb 10 14:36:52 ws522-001 cdemud[1037]:  - ctl device: /dev/vhba_ctl
Feb 10 14:36:52 ws522-001 cdemud[1037]:  - audio driver: default
Feb 10 14:36:52 ws522-001 cdemud[1037]:  - bus type: system#012
Feb 10 14:36:52 ws522-001 cdemud[1037]: WARNING: using CDEmu on system bus is deprecated and might lead to security issues on multi-user systems! Consult the README file for more details.#012
Feb 10 14:36:52 ws522-001 avahi-daemon[873]: Registering new address record for fe80::21e:8cff:fe0a:7c72 on eth0.*.
Feb 10 14:36:53 ws522-001 acpid: starting up with proc fs
Feb 10 14:36:53 ws522-001 init: apport pre-start process (1007) terminated with status 1
Feb 10 14:36:53 ws522-001 init: apport post-stop process (1081) terminated with status 1
Feb 10 14:36:53 ws522-001 acpid: 36 rules loaded
Feb 10 14:36:53 ws522-001 acpid: waiting for events: event logging is off
Feb 10 14:36:53 ws522-001 acpid: client connected from 1001[0:0]
Feb 10 14:36:53 ws522-001 acpid: 1 client rule loaded
Feb 10 14:36:55 ws522-001 dhclient: DHCPDISCOVER on eth0 to 255.255.255.255 port 67 interval 3
Feb 10 14:36:55 ws522-001 dhclient: DHCPOFFER of 10.16.0.233 from 10.16.0.1
Feb 10 14:36:55 ws522-001 dhclient: DHCPREQUEST of 10.16.0.233 on eth0 to 255.255.255.255 port 67
Feb 10 14:36:55 ws522-001 dhclient: DHCPACK of 10.16.0.233 from 10.16.0.1
Feb 10 14:36:55 ws522-001 NetworkManager: <info>  DHCP: device eth0 state changed preinit -> bound
Feb 10 14:36:55 ws522-001 NetworkManager: <info>  Activation (eth0) Stage 4 of 5 (IP4 Configure Get) scheduled...
Feb 10 14:36:55 ws522-001 NetworkManager: <info>  Activation (eth0) Stage 4 of 5 (IP4 Configure Get) started...
Feb 10 14:36:55 ws522-001 NetworkManager: <info>    address 10.16.0.233
Feb 10 14:36:55 ws522-001 NetworkManager: <info>    prefix 16 (255.255.0.0)
Feb 10 14:36:55 ws522-001 NetworkManager: <info>    gateway 10.16.0.1
Feb 10 14:36:55 ws522-001 NetworkManager: <info>    nameserver '8.8.8.8'
Feb 10 14:36:55 ws522-001 NetworkManager: <info>    nameserver '8.8.4.4'
Feb 10 14:36:55 ws522-001 NetworkManager: <info>  Activation (eth0) Stage 5 of 5 (IP Configure Commit) scheduled...
Feb 10 14:36:55 ws522-001 NetworkManager: <info>  Activation (eth0) Stage 4 of 5 (IP4 Configure Get) complete.
Feb 10 14:36:55 ws522-001 NetworkManager: <info>  Activation (eth0) Stage 5 of 5 (IP Configure Commit) started...
Feb 10 14:36:55 ws522-001 avahi-daemon[873]: Joining mDNS multicast group on interface eth0.IPv4 with address 10.16.0.233.
Feb 10 14:36:55 ws522-001 avahi-daemon[873]: New relevant interface eth0.IPv4 for mDNS.
Feb 10 14:36:55 ws522-001 avahi-daemon[873]: Registering new address record for 10.16.0.233 on eth0.IPv4.
Feb 10 14:36:55 ws522-001 dhclient: bound to 10.16.0.233 -- renewal in 39225 seconds.
Feb 10 14:36:56 ws522-001 NetworkManager: <info>  (eth0): device state change: 7 -> 8 (reason 0)
Feb 10 14:36:56 ws522-001 NetworkManager: <info>  Policy set 'Auto eth0' (eth0) as default for routing and DNS.
Feb 10 14:36:56 ws522-001 NetworkManager: <info>  Activation (eth0) successful, device activated.
Feb 10 14:36:56 ws522-001 NetworkManager: <info>  Activation (eth0) Stage 5 of 5 (IP Configure Commit) complete.
Feb 10 14:36:58 ws522-001 acpid: client connected from 1001[0:0]
Feb 10 14:36:58 ws522-001 acpid: 1 client rule loaded
Feb 10 14:37:00 ws522-001 gdm-session-worker[1263]: GLib-GObject-CRITICAL: g_value_get_boolean: assertion `G_VALUE_HOLDS_BOOLEAN (value)' failed
Feb 10 14:37:00 ws522-001 /etc/mysql/debian-start[1265]: Upgrading MySQL tables if necessary.
Feb 10 14:37:01 ws522-001 /etc/mysql/debian-start[1268]: /usr/bin/mysql_upgrade: the '--basedir' option is always ignored
Feb 10 14:37:01 ws522-001 /etc/mysql/debian-start[1268]: Looking for 'mysql' as: /usr/bin/mysql
Feb 10 14:37:01 ws522-001 /etc/mysql/debian-start[1268]: Looking for 'mysqlcheck' as: /usr/bin/mysqlcheck
Feb 10 14:37:01 ws522-001 /etc/mysql/debian-start[1268]: This installation of MySQL is already upgraded to 5.1.70, use --force if you still need to run mysql_upgrade
Feb 10 14:37:01 ws522-001 /etc/mysql/debian-start[1320]: Checking for insecure root accounts.
Feb 10 14:37:01 ws522-001 /etc/mysql/debian-start[1324]: Triggering myisam-recover for all MyISAM tables
Feb 10 14:37:02 ws522-001 init: plymouth-stop pre-start process (1394) terminated with status 1
Feb 10 14:37:06 ws522-001 rtkit-daemon[1472]: Sucessfully called chroot.
Feb 10 14:37:06 ws522-001 rtkit-daemon[1472]: Sucessfully dropped privileges.
Feb 10 14:37:06 ws522-001 rtkit-daemon[1472]: Sucessfully limited resources.
Feb 10 14:37:06 ws522-001 rtkit-daemon[1472]: Running.
Feb 10 14:37:06 ws522-001 rtkit-daemon[1472]: Canary thread running.
Feb 10 14:37:06 ws522-001 rtkit-daemon[1472]: Watchdog thread running.
Feb 10 14:37:06 ws522-001 polkitd[1476]: started daemon version 0.96 using authority implementation `local' version `0.96'
Feb 10 14:37:06 ws522-001 rtkit-daemon[1472]: Sucessfully made thread 1467 of process 1467 (n/a) owned by '1001' high priority at nice level -11.
Feb 10 14:37:06 ws522-001 rtkit-daemon[1472]: Supervising 1 threads of 1 processes of 1 users.
Feb 10 14:37:07 ws522-001 gnome-session[1315]: WARNING: Could not launch application 'bluetooth-applet.desktop': Unable to start application: Помилка виконання дочірнього процесу "bluetooth-applet" (No such file or directory)
Feb 10 14:37:07 ws522-001 rtkit-daemon[1472]: Sucessfully made thread 1492 of process 1467 (n/a) owned by '1001' RT at priority 5.
Feb 10 14:37:07 ws522-001 rtkit-daemon[1472]: Supervising 2 threads of 1 processes of 1 users.
Feb 10 14:37:08 ws522-001 rtkit-daemon[1472]: Sucessfully made thread 1494 of process 1467 (n/a) owned by '1001' RT at priority 5.
Feb 10 14:37:08 ws522-001 rtkit-daemon[1472]: Supervising 3 threads of 1 processes of 1 users.
Feb 10 14:37:09 ws522-001 rtkit-daemon[1472]: Sucessfully made thread 1497 of process 1497 (n/a) owned by '1001' high priority at nice level -11.
Feb 10 14:37:09 ws522-001 rtkit-daemon[1472]: Supervising 4 threads of 2 processes of 1 users.
Feb 10 14:37:14 ws522-001 acpid: client connected from 1617[108:114]
Feb 10 14:37:14 ws522-001 acpid: 1 client rule loaded
Feb 10 14:37:23 ws522-001 gnome-session[1315]: WARNING: Could not launch application 'gnome-user-share.desktop': Unable to start application: Помилка виконання дочірнього процесу "/usr/lib/gnome-user-share/gnome-user-share" (No such file or directory)
Feb 10 14:38:09 ws522-001 AptDaemon: INFO: Initializing daemon
Feb 10 14:38:31 ws522-001 ntpdate[1513]: can't find host ntp.ubuntu.com
Feb 10 14:38:31 ws522-001 ntpdate[1513]: no servers can be used, exiting
Feb 22 11:52:23 ws522-001 avahi-daemon[869]: Found user 'avahi' (UID 104) and group 'avahi' (GID 111).
Feb 22 11:52:23 ws522-001 avahi-daemon[869]: Successfully dropped root privileges.
Feb 22 11:52:23 ws522-001 avahi-daemon[869]: avahi-daemon 0.6.25 starting up.
Feb 22 11:52:23 ws522-001 avahi-daemon[869]: Successfully called chroot().
Feb 22 11:52:23 ws522-001 avahi-daemon[869]: Successfully dropped remaining capabilities.
Feb 22 11:52:23 ws522-001 avahi-daemon[869]: No service file found in /etc/avahi/services.
Feb 22 11:52:23 ws522-001 avahi-daemon[869]: Network interface enumeration completed.
Feb 22 11:52:23 ws522-001 avahi-daemon[869]: Registering HINFO record with values 'X86_64'/'LINUX'.
Feb 22 11:52:23 ws522-001 avahi-daemon[869]: Server startup complete. Host name is ws522-001.local. Local service cookie is 3298051854.
Feb 22 11:52:24 ws522-001 NetworkManager: <info>  starting...
Feb 22 11:52:24 ws522-001 NetworkManager: <info>  Trying to start the modem-manager...
Feb 22 11:52:24 ws522-001 NetworkManager:    SCPlugin-Ifupdown: init!
Feb 22 11:52:24 ws522-001 NetworkManager:    SCPlugin-Ifupdown: update_system_hostname
Feb 22 11:52:24 ws522-001 NetworkManager:    SCPluginIfupdown: management mode: unmanaged
Feb 22 11:52:24 ws522-001 NetworkManager:    SCPlugin-Ifupdown: devices added (path: /sys/devices/pci0000:00/0000:00:07.0/net/eth0, iface: eth0)
Feb 22 11:52:24 ws522-001 NetworkManager:    SCPlugin-Ifupdown: device added (path: /sys/devices/pci0000:00/0000:00:07.0/net/eth0, iface: eth0): no ifupdown configuration found.
Feb 22 11:52:24 ws522-001 NetworkManager:    SCPlugin-Ifupdown: devices added (path: /sys/devices/virtual/net/lo, iface: lo)
Feb 22 11:52:24 ws522-001 NetworkManager:    SCPlugin-Ifupdown: device added (path: /sys/devices/virtual/net/lo, iface: lo): no ifupdown configuration found.
Feb 22 11:52:24 ws522-001 NetworkManager:    SCPlugin-Ifupdown: end _init.
Feb 22 11:52:24 ws522-001 NetworkManager: Loaded plugin ifupdown: (C) 2008 Canonical Ltd.  To report bugs please use the NetworkManager mailing list.
Feb 22 11:52:24 ws522-001 NetworkManager: Loaded plugin keyfile: (c) 2007 - 2008 Red Hat, Inc.  To report bugs please use the NetworkManager mailing list.
Feb 22 11:52:24 ws522-001 NetworkManager: <info>  WiFi enabled by radio killswitch; enabled by state file
Feb 22 11:52:24 ws522-001 NetworkManager: <info>  WWAN enabled by radio killswitch; enabled by state file
Feb 22 11:52:24 ws522-001 NetworkManager:    SCPlugin-Ifupdown: (23500064) ... get_connections.
Feb 22 11:52:24 ws522-001 NetworkManager:    SCPlugin-Ifupdown: (23500064) ... get_connections (managed=false): return empty list.
Feb 22 11:52:24 ws522-001 NetworkManager:    Ifupdown: get unmanaged devices count: 0
Feb 22 11:52:24 ws522-001 NetworkManager: <info>  (eth0): carrier is OFF
Feb 22 11:52:24 ws522-001 NetworkManager: <info>  (eth0): new Ethernet device (driver: 'forcedeth')
Feb 22 11:52:24 ws522-001 NetworkManager: <info>  (eth0): exported as /org/freedesktop/NetworkManager/Devices/0
Feb 22 11:52:24 ws522-001 NetworkManager: <info>  (eth0): now managed
Feb 22 11:52:24 ws522-001 NetworkManager: <info>  (eth0): device state change: 1 -> 2 (reason 2)
Feb 22 11:52:24 ws522-001 NetworkManager: <info>  (eth0): bringing up device.
Feb 22 11:52:24 ws522-001 NetworkManager: <info>  (eth0): preparing device.
Feb 22 11:52:24 ws522-001 NetworkManager: <info>  (eth0): deactivating device (reason: 2).
Feb 22 11:52:24 ws522-001 NetworkManager: Added default wired connection 'Auto eth0' for /sys/devices/pci0000:00/0000:00:07.0/net/eth0
Feb 22 11:52:24 ws522-001 NetworkManager: <info>  (eth0): carrier now ON (device state 2)
Feb 22 11:52:24 ws522-001 NetworkManager: <info>  (eth0): device state change: 2 -> 3 (reason 40)
Feb 22 11:52:24 ws522-001 NetworkManager: <WARN>  default_adapter_cb(): bluez error getting default adapter: The name org.bluez was not provided by any .service files
Feb 22 11:52:24 ws522-001 NetworkManager: <info>  Trying to start the supplicant...
Feb 22 11:52:24 ws522-001 NetworkManager: <info>  Activation (eth0) starting connection 'Auto eth0'
Feb 22 11:52:24 ws522-001 NetworkManager: <info>  (eth0): device state change: 3 -> 4 (reason 0)
Feb 22 11:52:24 ws522-001 NetworkManager: <info>  Activation (eth0) Stage 1 of 5 (Device Prepare) scheduled...
Feb 22 11:52:24 ws522-001 NetworkManager: <info>  Activation (eth0) Stage 1 of 5 (Device Prepare) started...
Feb 22 11:52:24 ws522-001 NetworkManager: <info>  Activation (eth0) Stage 2 of 5 (Device Configure) scheduled...
Feb 22 11:52:24 ws522-001 NetworkManager: <info>  Activation (eth0) Stage 1 of 5 (Device Prepare) complete.
Feb 22 11:52:24 ws522-001 NetworkManager: <info>  Activation (eth0) Stage 2 of 5 (Device Configure) starting...
Feb 22 11:52:24 ws522-001 NetworkManager: <info>  (eth0): device state change: 4 -> 5 (reason 0)
Feb 22 11:52:24 ws522-001 NetworkManager: <info>  Activation (eth0) Stage 2 of 5 (Device Configure) successful.
Feb 22 11:52:24 ws522-001 NetworkManager: <info>  Activation (eth0) Stage 3 of 5 (IP Configure Start) scheduled.
Feb 22 11:52:24 ws522-001 NetworkManager: <info>  Activation (eth0) Stage 2 of 5 (Device Configure) complete.
Feb 22 11:52:24 ws522-001 NetworkManager: <info>  Activation (eth0) Stage 3 of 5 (IP Configure Start) started...
Feb 22 11:52:24 ws522-001 NetworkManager: <info>  (eth0): device state change: 5 -> 7 (reason 0)
Feb 22 11:52:24 ws522-001 NetworkManager: <info>  Activation (eth0) Beginning DHCP transaction (timeout in 45 seconds)
Feb 22 11:52:24 ws522-001 gdm-binary[849]: WARNING: Unable to find users: no seat-id found
Feb 22 11:52:25 ws522-001 NetworkManager: <info>  dhclient started with pid 960
Feb 22 11:52:25 ws522-001 NetworkManager: <info>  Activation (eth0) Stage 4 of 5 (IP6 Configure Get) scheduled...
Feb 22 11:52:25 ws522-001 NetworkManager: <info>  Activation (eth0) Stage 3 of 5 (IP Configure Start) complete.
Feb 22 11:52:25 ws522-001 NetworkManager: <info>  Activation (eth0) Stage 4 of 5 (IP6 Configure Get) started...
Feb 22 11:52:25 ws522-001 NetworkManager: <info>  Activation (eth0) Stage 4 of 5 (IP6 Configure Get) complete.
Feb 22 11:52:25 ws522-001 dhclient: Internet Systems Consortium DHCP Client V3.1.3
Feb 22 11:52:25 ws522-001 dhclient: Copyright 2004-2009 Internet Systems Consortium.
Feb 22 11:52:25 ws522-001 dhclient: All rights reserved.
Feb 22 11:52:25 ws522-001 dhclient: For info, please visit https://www.isc.org/software/dhcp/
Feb 22 11:52:25 ws522-001 dhclient: 
Feb 22 11:52:25 ws522-001 NetworkManager: <info>  modem-manager is now available
Feb 22 11:52:25 ws522-001 modem-manager: Loaded plugin Longcheer
Feb 22 11:52:25 ws522-001 modem-manager: Loaded plugin Generic
Feb 22 11:52:25 ws522-001 modem-manager: Loaded plugin Huawei
Feb 22 11:52:25 ws522-001 modem-manager: Loaded plugin ZTE
Feb 22 11:52:25 ws522-001 modem-manager: Loaded plugin MotoC
Feb 22 11:52:25 ws522-001 modem-manager: Loaded plugin Ericsson MBM
Feb 22 11:52:25 ws522-001 modem-manager: Loaded plugin Sierra
Feb 22 11:52:25 ws522-001 modem-manager: Loaded plugin Novatel
Feb 22 11:52:25 ws522-001 modem-manager: Loaded plugin Nokia
Feb 22 11:52:25 ws522-001 modem-manager: Loaded plugin Option
Feb 22 11:52:25 ws522-001 modem-manager: Loaded plugin Option High-Speed
Feb 22 11:52:25 ws522-001 modem-manager: Loaded plugin AnyData
Feb 22 11:52:25 ws522-001 modem-manager: Loaded plugin Gobi
Feb 22 11:52:25 ws522-001 NetworkManager: <info>  DHCP: device eth0 state changed (null) -> preinit
Feb 22 11:52:25 ws522-001 dhclient: Listening on LPF/eth0/00:1e:8c:0a:7c:72
Feb 22 11:52:25 ws522-001 dhclient: Sending on   LPF/eth0/00:1e:8c:0a:7c:72
Feb 22 11:52:25 ws522-001 dhclient: Sending on   Socket/fallback
Feb 22 11:52:26 ws522-001 avahi-daemon[869]: Registering new address record for fe80::21e:8cff:fe0a:7c72 on eth0.*.
Feb 22 11:52:26 ws522-001 cdemud[1027]: Starting daemon in daemon mode with following parameters:
Feb 22 11:52:26 ws522-001 cdemud[1027]:  - num devices: 2
Feb 22 11:52:26 ws522-001 cdemud[1027]:  - ctl device: /dev/vhba_ctl
Feb 22 11:52:26 ws522-001 cdemud[1027]:  - audio driver: default
Feb 22 11:52:26 ws522-001 cdemud[1027]:  - bus type: system#012
Feb 22 11:52:26 ws522-001 cdemud[1027]: WARNING: using CDEmu on system bus is deprecated and might lead to security issues on multi-user systems! Consult the README file for more details.#012
Feb 22 11:52:26 ws522-001 acpid: starting up with proc fs
Feb 22 11:52:26 ws522-001 init: apport pre-start process (993) terminated with status 1
Feb 22 11:52:26 ws522-001 init: apport post-stop process (1036) terminated with status 1
Feb 22 11:52:26 ws522-001 acpid: 36 rules loaded
Feb 22 11:52:26 ws522-001 acpid: waiting for events: event logging is off
Feb 22 11:52:27 ws522-001 acpid: client connected from 990[0:0]
Feb 22 11:52:27 ws522-001 acpid: 1 client rule loaded
Feb 22 11:52:29 ws522-001 dhclient: DHCPDISCOVER on eth0 to 255.255.255.255 port 67 interval 7
Feb 22 11:52:29 ws522-001 dhclient: DHCPOFFER of 10.16.0.233 from 10.16.0.1
Feb 22 11:52:29 ws522-001 dhclient: DHCPREQUEST of 10.16.0.233 on eth0 to 255.255.255.255 port 67
Feb 22 11:52:29 ws522-001 dhclient: DHCPACK of 10.16.0.233 from 10.16.0.1
Feb 22 11:52:29 ws522-001 NetworkManager: <info>  DHCP: device eth0 state changed preinit -> bound
Feb 22 11:52:29 ws522-001 NetworkManager: <info>  Activation (eth0) Stage 4 of 5 (IP4 Configure Get) scheduled...
Feb 22 11:52:29 ws522-001 NetworkManager: <info>  Activation (eth0) Stage 4 of 5 (IP4 Configure Get) started...
Feb 22 11:52:29 ws522-001 NetworkManager: <info>    address 10.16.0.233
Feb 22 11:52:29 ws522-001 NetworkManager: <info>    prefix 16 (255.255.0.0)
Feb 22 11:52:29 ws522-001 NetworkManager: <info>    gateway 10.16.0.1
Feb 22 11:52:29 ws522-001 NetworkManager: <info>    nameserver '8.8.8.8'
Feb 22 11:52:29 ws522-001 NetworkManager: <info>    nameserver '8.8.4.4'
Feb 22 11:52:29 ws522-001 NetworkManager: <info>  Activation (eth0) Stage 5 of 5 (IP Configure Commit) scheduled...
Feb 22 11:52:29 ws522-001 NetworkManager: <info>  Activation (eth0) Stage 4 of 5 (IP4 Configure Get) complete.
Feb 22 11:52:29 ws522-001 NetworkManager: <info>  Activation (eth0) Stage 5 of 5 (IP Configure Commit) started...
Feb 22 11:52:29 ws522-001 avahi-daemon[869]: Joining mDNS multicast group on interface eth0.IPv4 with address 10.16.0.233.
Feb 22 11:52:29 ws522-001 dhclient: bound to 10.16.0.233 -- renewal in 38747 seconds.
Feb 22 11:52:29 ws522-001 avahi-daemon[869]: New relevant interface eth0.IPv4 for mDNS.
Feb 22 11:52:29 ws522-001 avahi-daemon[869]: Registering new address record for 10.16.0.233 on eth0.IPv4.
Feb 22 11:52:30 ws522-001 NetworkManager: <info>  (eth0): device state change: 7 -> 8 (reason 0)
Feb 22 11:52:30 ws522-001 NetworkManager: <info>  Policy set 'Auto eth0' (eth0) as default for routing and DNS.
Feb 22 11:52:30 ws522-001 NetworkManager: <info>  Activation (eth0) successful, device activated.
Feb 22 11:52:30 ws522-001 NetworkManager: <info>  Activation (eth0) Stage 5 of 5 (IP Configure Commit) complete.
Feb 22 11:52:31 ws522-001 acpid: client connected from 990[0:0]
Feb 22 11:52:31 ws522-001 acpid: 1 client rule loaded
Feb 22 11:52:33 ws522-001 /etc/mysql/debian-start[1232]: Upgrading MySQL tables if necessary.
Feb 22 11:52:33 ws522-001 gdm-session-worker[1234]: GLib-GObject-CRITICAL: g_value_get_boolean: assertion `G_VALUE_HOLDS_BOOLEAN (value)' failed
Feb 22 11:52:34 ws522-001 /etc/mysql/debian-start[1237]: /usr/bin/mysql_upgrade: the '--basedir' option is always ignored
Feb 22 11:52:34 ws522-001 /etc/mysql/debian-start[1237]: Looking for 'mysql' as: /usr/bin/mysql
Feb 22 11:52:34 ws522-001 /etc/mysql/debian-start[1237]: Looking for 'mysqlcheck' as: /usr/bin/mysqlcheck
Feb 22 11:52:34 ws522-001 /etc/mysql/debian-start[1237]: This installation of MySQL is already upgraded to 5.1.70, use --force if you still need to run mysql_upgrade
Feb 22 11:52:34 ws522-001 /etc/mysql/debian-start[1279]: Checking for insecure root accounts.
Feb 22 11:52:34 ws522-001 /etc/mysql/debian-start[1283]: Triggering myisam-recover for all MyISAM tables
Feb 22 11:52:37 ws522-001 init: plymouth-stop pre-start process (1429) terminated with status 1
Feb 22 11:52:40 ws522-001 rtkit-daemon[1459]: Sucessfully called chroot.
Feb 22 11:52:40 ws522-001 rtkit-daemon[1459]: Sucessfully dropped privileges.
Feb 22 11:52:40 ws522-001 rtkit-daemon[1459]: Sucessfully limited resources.
Feb 22 11:52:40 ws522-001 rtkit-daemon[1459]: Running.
Feb 22 11:52:40 ws522-001 rtkit-daemon[1459]: Watchdog thread running.
Feb 22 11:52:40 ws522-001 rtkit-daemon[1459]: Canary thread running.
Feb 22 11:52:40 ws522-001 polkitd[1463]: started daemon version 0.96 using authority implementation `local' version `0.96'
Feb 22 11:52:40 ws522-001 rtkit-daemon[1459]: Sucessfully made thread 1457 of process 1457 (n/a) owned by '1001' high priority at nice level -11.
Feb 22 11:52:40 ws522-001 rtkit-daemon[1459]: Supervising 1 threads of 1 processes of 1 users.
Feb 22 11:52:41 ws522-001 gnome-session[1275]: WARNING: Could not launch application 'bluetooth-applet.desktop': Unable to start application: Помилка виконання дочірнього процесу "bluetooth-applet" (No such file or directory)
Feb 22 11:52:41 ws522-001 rtkit-daemon[1459]: Sucessfully made thread 1479 of process 1457 (n/a) owned by '1001' RT at priority 5.
Feb 22 11:52:41 ws522-001 rtkit-daemon[1459]: Supervising 2 threads of 1 processes of 1 users.
Feb 22 11:52:42 ws522-001 rtkit-daemon[1459]: Sucessfully made thread 1485 of process 1457 (n/a) owned by '1001' RT at priority 5.
Feb 22 11:52:42 ws522-001 rtkit-daemon[1459]: Supervising 3 threads of 1 processes of 1 users.
Feb 22 11:52:42 ws522-001 rtkit-daemon[1459]: Sucessfully made thread 1487 of process 1487 (n/a) owned by '1001' high priority at nice level -11.
Feb 22 11:52:42 ws522-001 rtkit-daemon[1459]: Supervising 4 threads of 2 processes of 1 users.
Feb 22 11:52:47 ws522-001 acpid: client connected from 1601[108:114]
Feb 22 11:52:47 ws522-001 acpid: 1 client rule loaded
Feb 22 11:52:57 ws522-001 gnome-session[1275]: WARNING: Could not launch application 'gnome-user-share.desktop': Unable to start application: Помилка виконання дочірнього процесу "/usr/lib/gnome-user-share/gnome-user-share" (No such file or directory)
Feb 22 11:53:44 ws522-001 AptDaemon: INFO: Initializing daemon
Feb 22 11:54:05 ws522-001 ntpdate[1514]: can't find host ntp.ubuntu.com
Feb 22 11:54:05 ws522-001 ntpdate[1514]: no servers can be used, exiting
Feb 22 11:56:26 ws522-001 acpid: client 990[0:0] has disconnected
Feb 22 11:56:26 ws522-001 acpid: client 990[0:0] has disconnected
Feb 22 11:56:26 ws522-001 acpid: client connected from 1721[0:0]
Feb 22 11:56:26 ws522-001 acpid: 1 client rule loaded
Feb 22 11:56:26 ws522-001 acpid: client connected from 1721[0:0]
Feb 22 11:56:26 ws522-001 acpid: 1 client rule loaded
Feb 22 11:56:27 ws522-001 rtkit-daemon[1459]: Sucessfully made thread 1764 of process 1764 (n/a) owned by '114' high priority at nice level -11.
Feb 22 11:56:27 ws522-001 rtkit-daemon[1459]: Supervising 4 threads of 2 processes of 2 users.
Feb 22 11:56:28 ws522-001 gdm-simple-greeter[1757]: Gtk-WARNING: /build/buildd/gtk+2.0-2.20.1/gtk/gtkwidget.c:5636: widget not within a GtkWindow
Feb 22 11:56:28 ws522-001 rtkit-daemon[1459]: Sucessfully made thread 1767 of process 1764 (n/a) owned by '114' RT at priority 5.
Feb 22 11:56:28 ws522-001 rtkit-daemon[1459]: Supervising 5 threads of 2 processes of 2 users.
Feb 22 11:56:28 ws522-001 rtkit-daemon[1459]: Sucessfully made thread 1768 of process 1764 (n/a) owned by '114' RT at priority 5.
Feb 22 11:56:28 ws522-001 rtkit-daemon[1459]: Supervising 6 threads of 2 processes of 2 users.
Feb 22 11:56:30 ws522-001 gdm-session-worker[1762]: GLib-GObject-CRITICAL: g_value_get_boolean: assertion `G_VALUE_HOLDS_BOOLEAN (value)' failed
Feb 22 11:56:39 ws522-001 gdm-session-worker[1762]: pam_sm_authenticate: Called
Feb 22 11:56:39 ws522-001 gdm-session-worker[1762]: pam_sm_authenticate: username = [laborant]
Feb 22 11:56:40 ws522-001 rtkit-daemon[1459]: Sucessfully made thread 1860 of process 1860 (n/a) owned by '1000' high priority at nice level -11.
Feb 22 11:56:40 ws522-001 rtkit-daemon[1459]: Supervising 7 threads of 3 processes of 3 users.
Feb 22 11:56:41 ws522-001 rtkit-daemon[1459]: Sucessfully made thread 1884 of process 1860 (n/a) owned by '1000' RT at priority 5.
Feb 22 11:56:41 ws522-001 rtkit-daemon[1459]: Supervising 8 threads of 3 processes of 3 users.
Feb 22 11:56:41 ws522-001 rtkit-daemon[1459]: Sucessfully made thread 1899 of process 1860 (n/a) owned by '1000' RT at priority 5.
Feb 22 11:56:41 ws522-001 rtkit-daemon[1459]: Supervising 9 threads of 3 processes of 3 users.
Feb 22 11:56:41 ws522-001 rtkit-daemon[1459]: Sucessfully made thread 1903 of process 1903 (n/a) owned by '1000' high priority at nice level -11.
Feb 22 11:56:41 ws522-001 rtkit-daemon[1459]: Supervising 10 threads of 4 processes of 3 users.
Feb 22 11:56:55 ws522-001 gnome-session[1795]: WARNING: Could not launch application 'gnome-user-share.desktop': Unable to start application: Failed to execute child process "/usr/lib/gnome-user-share/gnome-user-share" (No such file or directory)
Feb 22 11:59:44 ws522-001 AptDaemon: INFO: Quiting due to inactivity
Feb 22 11:59:44 ws522-001 AptDaemon: INFO: Shutdown was requested
